{
  "navigationBarTitleText": "充值确认",
  "enablePullDownRefresh": true,
  "usingComponents": {
    "i-icon": "../../dist/icon/index",
    "i-modal": "../../dist/modal/index",
    "i-button": "../../dist/button/index"
  }
}